*shortcuts.txt* shortcut navigation for nvim

-----------------------------------------------------------
-- Define keymaps of Neovim and installed plugins.
-----------------------------------------------------------

local function map(mode, lhs, rhs, opts)
  local options = { noremap = true, silent = true }
  if opts then
    options = vim.tbl_extend('force', options, opts)
  end
  vim.api.nvim_set_keymap(mode, lhs, rhs, options)
end

-- Change leader to a comma
vim.g.mapleader = ','

-----------------------------------------------------------
-- Neovim shortcuts
-----------------------------------------------------------

-- Disable arrow keys
--[[ 
map('', '<up>', '<nop>')
map('', '<down>', '<nop>')
map('', '<left>', '<nop>')
map('', '<right>', '<nop>')
--]]

-- Map Esc to fj
map('i', 'fj', '<Esc>')

-- Clear search highlighting with <leader> and c
map('n', '<leader>c', ':nohl<CR>')

-- Change split orientation
map('n', '<leader>tk', '<C-w>t<C-w>K') -- change vertical to horizontal
map('n', '<leader>th', '<C-w>t<C-w>H') -- change horizontal to vertical

-- Move around splits using Ctrl + {h,j,k,l}
map('n', 'sh', '<C-w>h')
map('n', 'sj', '<C-w>j')
map('n', 'sk', '<C-w>k')
map('n', 'sl', '<C-w>l')

map('n', 'ss', ':split<CR>')
map('n', 'sv', ':vsplit<CR>')
-- Reload configuration without restart nvim
map('n', '<leader>cr', ':so %<CR>')

-- Fast saving with <leader> and s
map('n', '<leader>s', ':w<CR>')
map('i', '<leader>s', '<C-c>:w<CR>')

-- Close all windows and exit from Neovim with <leader> and q
map('n', '<leader>q', ':qa!<CR>')

-----------------------------------------------------------
-- Applications and Plugins shortcuts
-----------------------------------------------------------

-- Terminal mappings
map('n', '<C-t>', ':Term<CR>', { noremap = true })  -- open
map('t', '<Esc>', '<C-\\><C-n>')                    -- exit

-- NvimTree
--map('n', '<C-n>', ':NvimTreeToggle<CR>')            -- open/close
map('n', '<leader>n', ':NvimTreeToggle<CR>')            -- open/close
map('n', '<leader>f', ':NvimTreeRefresh<CR>')       -- refresh
--map('n', '<leader>n', ':NvimTreeFindFile<CR>')      -- search file

-- Tagbar
map('n', '<leader>z', ':TagbarToggle<CR>')          -- open/close


-- Telescope
map('n', '<leader>ff', ':Telescope find_files<CR>')
map('n', '<leader>fg', ':Telescope live_grep<CR>')
map('n', '<leader>fb', ':Telescope buffers<CR>')
map('n', '<leader>fh', ':Telescope help_tags<CR>')

-- code navigation
map('n', 'gd', '<cmd>lua vim.lsp.buf.definition()<CR>')
map('n', 'gD', '<cmd>lua vim.lsp.buf.declaration()<CR>')
map('n', 'gd', '<cmd>lua vim.lsp.buf.definition()<CR>')
map('n', 'K', '<cmd>lua vim.lsp.buf.hover()<CR>')
map('n', 'gi', '<cmd>lua vim.lsp.buf.implementation()<CR>')
map('n', '<C-k>', '<cmd>lua vim.lsp.buf.signature_help()<CR>')
map('n', '<space>wa', '<cmd>lua vim.lsp.buf.add_workspace_folder()<CR>')
map('n', '<space>wr', '<cmd>lua vim.lsp.buf.remove_workspace_folder()<CR>')
map('n', '<space>wl', '<cmd>lua print(vim.inspect(vim.lsp.buf.list_workspace_folders()))<CR>')
map('n', '<space>D', '<cmd>lua vim.lsp.buf.type_definition()<CR>')
map('n', '<space>rn', '<cmd>lua vim.lsp.buf.rename()<CR>')
map('n', '<space>ca', '<cmd>lua vim.lsp.buf.code_action()<CR>')
map('n', 'gr', '<cmd>lua vim.lsp.buf.references()<CR>')
map('n', '<space>e', '<cmd>lua vim.lsp.diagnostic.show_line_diagnostics()<CR>')
map('n', '[d', '<cmd>lua vim.lsp.diagnostic.goto_prev()<CR>')
map('n', ']d', '<cmd>lua vim.lsp.diagnostic.goto_next()<CR>')
map('n', '<space>q', '<cmd>lua vim.lsp.diagnostic.set_loclist()<CR>')

--- debug

map('n', '<leader>dk', "<Cmd>lua require'dap'.continue()<CR>")
map('n', '<leader>dn', "<Cmd>lua require'dap'.step_over()<CR>")
map('n', '<leader>ds', "<Cmd>lua require'dap'.step_into()<CR>")
map('n', '<leader>do', "<cmd>lua require'dap'.step_out()<CR>")
map('n', '<leader>b', "<cmd>lua require'dap'.toggle_breakpoint()<CR>")
map('n', '<leader>B', "<cmd>lua require'dap'.set_breakpoint(vim.fn.input('Breakpoint condition: '))<CR>")
map('n', '<leader>lp', "<cmd>lua require'dap'.set_breakpoint(nil, nil, vim.fn.input('Log point message: '))<CR>")
map('n', '<leader>dr', "<cmd>lua require'dap'.repl.open()<CR>")
map('n', '<leader>dl', "<cmd>lua require'dap'.run_last()<CR>")

-- debug window
map('n', '<leader>du', "<cmd>lua require'dapui'.toggle()<CR>")


