{
  "coc.preferences.formatOnSaveFiletypes": [
    "json",
    "html",
    "css",
    "markdown",
    "typescriptreact",
    "javascript",
    "go",
    "python",
    "typescript",
    "javascriptreact",
    "rust"
  ],
  "go.goplsOptions": {
    "buildFlags": ["-tags=FEATURE_TOGGLE_MARGIN_CLI_ALPHA"],
    "env": {
      "GOFLAGS": "-tags=FEATURE_TOGGLE_MARGIN_CLI_ALPHA"
    }
  },
  "eslint.autoFixOnSave": true,
  "javascript.suggestionActions.enabled": false,
  "tsserver.enableJavascript": true,
  "diagnostic.errorSign": "✘",
  "diagnostic.warningSign": "",
  "diagnostic.infoSign": "",
  "python.sortImports.path": "/Users/dchoi/.pyenv/shims/isort",
  "python.formatting.provider": "black",
  "python.formatting.blackPath": "/Users/dchoi/.pyenv/shims/black",
  "suggest.completionItemKindLabels": {
    "keyword": "\uf1de",
    "variable": "\ue79b",
    "value": "\uf89f",
    "operator": "\u03a8",
    "function": "\u0192",
    "reference": "\ufa46",
    "constant": "\uf8fe",
    "method": "\uf09a",
    "struct": "\ufb44",
    "class": "\uf0e8",
    "interface": "\uf417",
    "text": "\ue612",
    "enum": "\uf435",
    "enumMember": "\uf02b",
    "module": "\uf40d",
    "color": "\ue22b",
    "property": "\ue624",
    "field": "\ue624",
    "unit": "\uf475",
    "event": "\ufacd",
    "file": "\uf723",
    "folder": "\uf114",
    "snippet": "\ue60b",
    "typeParameter": "\uf728",
    "default": "\uf29c"
  },
  "languageserver": {
    "ccls": {
      "command": "ccls",
      "filetypes": ["c", "cpp", "objc", "objcpp"],
      "rootPatterns": [".ccls", "compile_commands.json", ".vim/", ".git/", ".hg/"],
      "initializationOptions": {
        "cache": {
          "directory": "/tmp/ccls"
        },
        "clang": {
          "resourceDir": "/Library/Developer/CommandLineTools/usr/lib/clang/11.0.0",
          "extraArgs": [
            "-isystem",
            "/Library/Developer/CommandLineTools/usr/include/c++/v1",
            "-I",
            "/Applications/Xcode.app/Contents/Developer/Platforms/MacOSX.platform/Developer/SDKs/MacOSX.sdk/usr/include/"
          ]
        }
      }
    }
  }
}
